<?xml version="1.0" encoding="UTF-8" standalone="no"?>
<svg
   xmlns:dc="http://purl.org/dc/elements/1.1/"
   xmlns:cc="http://creativecommons.org/ns#"
   xmlns:rdf="http://www.w3.org/1999/02/22-rdf-syntax-ns#"
   xmlns:svg="http://www.w3.org/2000/svg"
   xmlns="http://www.w3.org/2000/svg"
   id="svg2555"
   version="1.1"
   viewBox="0 0 128.26047 22.335932"
   height="22.335932mm"
   width="128.26047mm">
  <defs
     id="defs2549" />
  <metadata
     id="metadata2552">
    <rdf:RDF>
      <cc:Work
         rdf:about="">
        <dc:format>image/svg+xml</dc:format>
        <dc:type
           rdf:resource="http://purl.org/dc/dcmitype/StillImage" />
        <dc:title></dc:title>
      </cc:Work>
    </rdf:RDF>
  </metadata>
  <g
     transform="translate(961.44568,55.858444)"
     id="layer1">
    <text
       id="text1719"
       y="-38.511837"
       x="-960.56384"
       style="font-style:normal;font-variant:normal;font-weight:normal;font-stretch:normal;font-size:23.76311111px;line-height:1.25;font-family:'Skull And Void';-inkscape-font-specification:'Skull And Void, Normal';font-variant-ligatures:normal;font-variant-caps:normal;font-variant-numeric:normal;font-feature-settings:normal;text-align:start;letter-spacing:0px;word-spacing:0px;writing-mode:lr-tb;text-anchor:start;fill:#000000;fill-opacity:1;stroke:none;stroke-width:0.59408152"
       xml:space="preserve"><tspan
         style="font-style:normal;font-variant:normal;font-weight:normal;font-stretch:normal;font-size:23.76311111px;font-family:'Skull And Void';-inkscape-font-specification:'Skull And Void, Normal';font-variant-ligatures:normal;font-variant-caps:normal;font-variant-numeric:normal;font-feature-settings:normal;text-align:start;writing-mode:lr-tb;text-anchor:start;stroke-width:0.59408152"
         y="-38.511837"
         x="-960.56384"
         id="tspan1717">ZarielKuri.com</tspan></text>
  </g>
</svg>
